^C:\USERS\ДМИТРИЙ\DESKTOP\APPS\LABORATORYWORK\LABORATORYWORK\DEBUG\ALGLIBINTERNAL.OBJ|C:\USERS\ДМИТРИЙ\DESKTOP\APPS\LABORATORYWORK\LABORATORYWORK\DEBUG\ALGLIBMISC.OBJ|C:\USERS\ДМИТРИЙ\DESKTOP\APPS\LABORATORYWORK\LABORATORYWORK\DEBUG\AP.OBJ|C:\USERS\ДМИТРИЙ\DESKTOP\APPS\LABORATORYWORK\LABORATORYWORK\DEBUG\BIGDECIMAL.OBJ|C:\USERS\ДМИТРИЙ\DESKTOP\APPS\LABORATORYWORK\LABORATORYWORK\DEBUG\CREATEHTML.OBJ|C:\USERS\ДМИТРИЙ\DESKTOP\APPS\LABORATORYWORK\LABORATORYWORK\DEBUG\CREATETXTFILE.OBJ|C:\USERS\ДМИТРИЙ\DESKTOP\APPS\LABORATORYWORK\LABORATORYWORK\DEBUG\CREATEXMLFILE.OBJ|C:\USERS\ДМИТРИЙ\DESKTOP\APPS\LABORATORYWORK\LABORATORYWORK\DEBUG\DATAANALYSIS.OBJ|C:\USERS\ДМИТРИЙ\DESKTOP\APPS\LABORATORYWORK\LABORATORYWORK\DEBUG\DIFFEQUATIONS.OBJ|C:\USERS\ДМИТРИЙ\DESKTOP\APPS\LABORATORYWORK\LABORATORYWORK\DEBUG\FASTTRANSFORMS.OBJ|C:\USERS\ДМИТРИЙ\DESKTOP\APPS\LABORATORYWORK\LABORATORYWORK\DEBUG\GENERATIONDATA.OBJ|C:\USERS\ДМИТРИЙ\DESKTOP\APPS\LABORATORYWORK\LABORATORYWORK\DEBUG\INTEGRATION.OBJ|C:\USERS\ДМИТРИЙ\DESKTOP\APPS\LABORATORYWORK\LABORATORYWORK\DEBUG\INTERPOLATION.OBJ|C:\USERS\ДМИТРИЙ\DESKTOP\APPS\LABORATORYWORK\LABORATORYWORK\DEBUG\LINALG.OBJ|C:\USERS\ДМИТРИЙ\DESKTOP\APPS\LABORATORYWORK\LABORATORYWORK\DEBUG\MAIN.OBJ|C:\USERS\ДМИТРИЙ\DESKTOP\APPS\LABORATORYWORK\LABORATORYWORK\DEBUG\MENUS.OBJ|C:\USERS\ДМИТРИЙ\DESKTOP\APPS\LABORATORYWORK\LABORATORYWORK\DEBUG\NEIRONAGLIBREGRESS.OBJ|C:\USERS\ДМИТРИЙ\DESKTOP\APPS\LABORATORYWORK\LABORATORYWORK\DEBUG\NEIRONALGLIB.OBJ|C:\USERS\ДМИТРИЙ\DESKTOP\APPS\LABORATORYWORK\LABORATORYWORK\DEBUG\NEIRONFANN.OBJ|C:\USERS\ДМИТРИЙ\DESKTOP\APPS\LABORATORYWORK\LABORATORYWORK\DEBUG\OPTIMIZATION.OBJ|C:\USERS\ДМИТРИЙ\DESKTOP\APPS\LABORATORYWORK\LABORATORYWORK\DEBUG\READXMLFILE.OBJ|C:\USERS\ДМИТРИЙ\DESKTOP\APPS\LABORATORYWORK\LABORATORYWORK\DEBUG\SOLVERS.OBJ|C:\USERS\ДМИТРИЙ\DESKTOP\APPS\LABORATORYWORK\LABORATORYWORK\DEBUG\SPECIALFUNCTIONS.OBJ|C:\USERS\ДМИТРИЙ\DESKTOP\APPS\LABORATORYWORK\LABORATORYWORK\DEBUG\STATISTICS.OBJ|C:\USERS\ДМИТРИЙ\DESKTOP\APPS\LABORATORYWORK\LABORATORYWORK\DEBUG\TABLE_PRINTER.OBJ|C:\USERS\ДМИТРИЙ\DESKTOP\APPS\LABORATORYWORK\LABORATORYWORK\DEBUG\TINYXML2.OBJ|C:\USERS\ДМИТРИЙ\DESKTOP\APPS\LABORATORYWORK\LABORATORYWORK\DEBUG\TITEM.OBJ|C:\USERS\ДМИТРИЙ\DESKTOP\APPS\LABORATORYWORK\LABORATORYWORK\DEBUG\WORKWITHTITEM.OBJ|C:\USERS\ДМИТРИЙ\DESKTOP\APPS\LABORATORYWORK\LABORATORYWORK\DEBUG\WRITEDATA.OBJ
C:\USERS\Дмитрий\DESKTOP\APPS\FANN-2.2.0-SOURCE\BIN\FANNFLOAT.LIB
C:\PROGRAM FILES (X86)\WINDOWS KITS\10\LIB\10.0.17763.0\UM\X86\KERNEL32.LIB
C:\PROGRAM FILES (X86)\WINDOWS KITS\10\LIB\10.0.17763.0\UM\X86\USER32.LIB
C:\PROGRAM FILES (X86)\WINDOWS KITS\10\LIB\10.0.17763.0\UM\X86\GDI32.LIB
C:\PROGRAM FILES (X86)\WINDOWS KITS\10\LIB\10.0.17763.0\UM\X86\WINSPOOL.LIB
C:\PROGRAM FILES (X86)\WINDOWS KITS\10\LIB\10.0.17763.0\UM\X86\COMDLG32.LIB
C:\PROGRAM FILES (X86)\WINDOWS KITS\10\LIB\10.0.17763.0\UM\X86\ADVAPI32.LIB
C:\PROGRAM FILES (X86)\WINDOWS KITS\10\LIB\10.0.17763.0\UM\X86\SHELL32.LIB
C:\PROGRAM FILES (X86)\WINDOWS KITS\10\LIB\10.0.17763.0\UM\X86\OLE32.LIB
C:\PROGRAM FILES (X86)\WINDOWS KITS\10\LIB\10.0.17763.0\UM\X86\OLEAUT32.LIB
C:\PROGRAM FILES (X86)\WINDOWS KITS\10\LIB\10.0.17763.0\UM\X86\UUID.LIB
C:\PROGRAM FILES (X86)\WINDOWS KITS\10\LIB\10.0.17763.0\UM\X86\ODBC32.LIB
C:\PROGRAM FILES (X86)\WINDOWS KITS\10\LIB\10.0.17763.0\UM\X86\ODBCCP32.LIB
C:\USERS\Дмитрий\DESKTOP\APPS\LABORATORYWORK\LABORATORYWORK\DEBUG\ALGLIBINTERNAL.OBJ
C:\USERS\Дмитрий\DESKTOP\APPS\LABORATORYWORK\LABORATORYWORK\DEBUG\ALGLIBMISC.OBJ
C:\USERS\Дмитрий\DESKTOP\APPS\LABORATORYWORK\LABORATORYWORK\DEBUG\AP.OBJ
C:\USERS\Дмитрий\DESKTOP\APPS\LABORATORYWORK\LABORATORYWORK\DEBUG\DATAANALYSIS.OBJ
C:\USERS\Дмитрий\DESKTOP\APPS\LABORATORYWORK\LABORATORYWORK\DEBUG\DIFFEQUATIONS.OBJ
C:\USERS\Дмитрий\DESKTOP\APPS\LABORATORYWORK\LABORATORYWORK\DEBUG\FASTTRANSFORMS.OBJ
C:\USERS\Дмитрий\DESKTOP\APPS\LABORATORYWORK\LABORATORYWORK\DEBUG\INTEGRATION.OBJ
C:\USERS\Дмитрий\DESKTOP\APPS\LABORATORYWORK\LABORATORYWORK\DEBUG\INTERPOLATION.OBJ
C:\USERS\Дмитрий\DESKTOP\APPS\LABORATORYWORK\LABORATORYWORK\DEBUG\LINALG.OBJ
C:\USERS\Дмитрий\DESKTOP\APPS\LABORATORYWORK\LABORATORYWORK\DEBUG\OPTIMIZATION.OBJ
C:\USERS\Дмитрий\DESKTOP\APPS\LABORATORYWORK\LABORATORYWORK\DEBUG\SOLVERS.OBJ
C:\USERS\Дмитрий\DESKTOP\APPS\LABORATORYWORK\LABORATORYWORK\DEBUG\SPECIALFUNCTIONS.OBJ
C:\USERS\Дмитрий\DESKTOP\APPS\LABORATORYWORK\LABORATORYWORK\DEBUG\STATISTICS.OBJ
C:\USERS\Дмитрий\DESKTOP\APPS\LABORATORYWORK\LABORATORYWORK\DEBUG\BIGDECIMAL.OBJ
C:\USERS\Дмитрий\DESKTOP\APPS\LABORATORYWORK\LABORATORYWORK\DEBUG\TABLE_PRINTER.OBJ
C:\USERS\Дмитрий\DESKTOP\APPS\LABORATORYWORK\LABORATORYWORK\DEBUG\TINYXML2.OBJ
C:\USERS\Дмитрий\DESKTOP\APPS\LABORATORYWORK\LABORATORYWORK\DEBUG\MENUS.OBJ
C:\USERS\Дмитрий\DESKTOP\APPS\LABORATORYWORK\LABORATORYWORK\DEBUG\WRITEDATA.OBJ
C:\USERS\Дмитрий\DESKTOP\APPS\LABORATORYWORK\LABORATORYWORK\DEBUG\NEIRONAGLIBREGRESS.OBJ
C:\USERS\Дмитрий\DESKTOP\APPS\LABORATORYWORK\LABORATORYWORK\DEBUG\NEIRONALGLIB.OBJ
C:\USERS\Дмитрий\DESKTOP\APPS\LABORATORYWORK\LABORATORYWORK\DEBUG\NEIRONFANN.OBJ
C:\USERS\Дмитрий\DESKTOP\APPS\LABORATORYWORK\LABORATORYWORK\DEBUG\TITEM.OBJ
C:\USERS\Дмитрий\DESKTOP\APPS\LABORATORYWORK\LABORATORYWORK\DEBUG\WORKWITHTITEM.OBJ
C:\USERS\Дмитрий\DESKTOP\APPS\LABORATORYWORK\LABORATORYWORK\DEBUG\CREATEHTML.OBJ
C:\USERS\Дмитрий\DESKTOP\APPS\LABORATORYWORK\LABORATORYWORK\DEBUG\CREATETXTFILE.OBJ
C:\USERS\Дмитрий\DESKTOP\APPS\LABORATORYWORK\LABORATORYWORK\DEBUG\CREATEXMLFILE.OBJ
C:\USERS\Дмитрий\DESKTOP\APPS\LABORATORYWORK\LABORATORYWORK\DEBUG\GENERATIONDATA.OBJ
C:\USERS\Дмитрий\DESKTOP\APPS\LABORATORYWORK\LABORATORYWORK\DEBUG\READXMLFILE.OBJ
C:\USERS\Дмитрий\DESKTOP\APPS\LABORATORYWORK\LABORATORYWORK\DEBUG\MAIN.OBJ
C:\WINDOWS\SYSTEM32\TZRES.DLL
C:\WINDOWS\GLOBALIZATION\SORTING\SORTDEFAULT.NLS
C:\PROGRAM FILES (X86)\MICROSOFT VISUAL STUDIO\2017\COMMUNITY\VC\TOOLS\MSVC\14.16.27023\LIB\X86\MSVCPRTD.LIB
C:\PROGRAM FILES (X86)\MICROSOFT VISUAL STUDIO\2017\COMMUNITY\VC\TOOLS\MSVC\14.16.27023\LIB\X86\MSVCRTD.LIB
C:\PROGRAM FILES (X86)\MICROSOFT VISUAL STUDIO\2017\COMMUNITY\VC\TOOLS\MSVC\14.16.27023\LIB\X86\OLDNAMES.LIB
C:\PROGRAM FILES (X86)\MICROSOFT VISUAL STUDIO\2017\COMMUNITY\VC\TOOLS\MSVC\14.16.27023\LIB\X86\VCRUNTIMED.LIB
C:\PROGRAM FILES (X86)\WINDOWS KITS\10\LIB\10.0.17763.0\UCRT\X86\UCRTD.LIB
