^C:\DEVELOP\WORKSPACE_VISUAL_STUDIO\LABORATORYWORK\LABORATORYWORK\LIBRARIES\TABLEPRINTER\TABLE_PRINTER.CPP
/c /I"C:\Develop\Workspace_visual_studio\FANN-2.2.0-Source\src\include" /ZI /nologo /W3 /WX- /Od /Oy- /D WIN32 /D _DEBUG /D _CONSOLE /D _UNICODE /D UNICODE /Gm /EHsc /RTC1 /MDd /GS /fp:precise /Zc:wchar_t /Zc:forScope /Fo"DEBUG\\" /Fd"DEBUG\VC110.PDB" /Gd /TP /analyze- C:\DEVELOP\WORKSPACE_VISUAL_STUDIO\LABORATORYWORK\LABORATORYWORK\LIBRARIES\TABLEPRINTER\TABLE_PRINTER.CPP
^C:\DEVELOP\WORKSPACE_VISUAL_STUDIO\LABORATORYWORK\LABORATORYWORK\LIBRARIES\TINY\TINYXML2.CPP
/c /I"C:\Develop\Workspace_visual_studio\FANN-2.2.0-Source\src\include" /ZI /nologo /W3 /WX- /Od /Oy- /D WIN32 /D _DEBUG /D _CONSOLE /D _UNICODE /D UNICODE /Gm /EHsc /RTC1 /MDd /GS /fp:precise /Zc:wchar_t /Zc:forScope /Fo"DEBUG\\" /Fd"DEBUG\VC110.PDB" /Gd /TP /analyze- C:\DEVELOP\WORKSPACE_VISUAL_STUDIO\LABORATORYWORK\LABORATORYWORK\LIBRARIES\TINY\TINYXML2.CPP
^C:\DEVELOP\WORKSPACE_VISUAL_STUDIO\LABORATORYWORK\LABORATORYWORK\LIBRARIES\BIGDECIMAL\BIGDECIMAL.CPP
/c /I"C:\Develop\Workspace_visual_studio\FANN-2.2.0-Source\src\include" /ZI /nologo /W3 /WX- /Od /Oy- /D WIN32 /D _DEBUG /D _CONSOLE /D _UNICODE /D UNICODE /Gm /EHsc /RTC1 /MDd /GS /fp:precise /Zc:wchar_t /Zc:forScope /Fo"DEBUG\\" /Fd"DEBUG\VC110.PDB" /Gd /TP /analyze- C:\DEVELOP\WORKSPACE_VISUAL_STUDIO\LABORATORYWORK\LABORATORYWORK\LIBRARIES\BIGDECIMAL\BIGDECIMAL.CPP
^C:\DEVELOP\WORKSPACE_VISUAL_STUDIO\LABORATORYWORK\LABORATORYWORK\MYLIBRARIES\NEIRON\NEIRONFANN.CPP
/c /I"C:\Develop\Workspace_visual_studio\FANN-2.2.0-Source\src\include" /ZI /nologo /W3 /WX- /Od /Oy- /D WIN32 /D _DEBUG /D _CONSOLE /D _UNICODE /D UNICODE /Gm /EHsc /RTC1 /MDd /GS /fp:precise /Zc:wchar_t /Zc:forScope /Fo"DEBUG\\" /Fd"DEBUG\VC110.PDB" /Gd /TP /analyze- C:\DEVELOP\WORKSPACE_VISUAL_STUDIO\LABORATORYWORK\LABORATORYWORK\MYLIBRARIES\NEIRON\NEIRONFANN.CPP
^C:\DEVELOP\WORKSPACE_VISUAL_STUDIO\LABORATORYWORK\LABORATORYWORK\MYLIBRARIES\TITEM\TITEM.CPP
/c /I"C:\Develop\Workspace_visual_studio\FANN-2.2.0-Source\src\include" /ZI /nologo /W3 /WX- /Od /Oy- /D WIN32 /D _DEBUG /D _CONSOLE /D _UNICODE /D UNICODE /Gm /EHsc /RTC1 /MDd /GS /fp:precise /Zc:wchar_t /Zc:forScope /Fo"DEBUG\\" /Fd"DEBUG\VC110.PDB" /Gd /TP /analyze- C:\DEVELOP\WORKSPACE_VISUAL_STUDIO\LABORATORYWORK\LABORATORYWORK\MYLIBRARIES\TITEM\TITEM.CPP
^C:\DEVELOP\WORKSPACE_VISUAL_STUDIO\LABORATORYWORK\LABORATORYWORK\SRC\RU\USATU\RBP-108M\ZAGIDULLINANDVAGAPOVA\MAIN.CPP
/c /I"C:\Develop\Workspace_visual_studio\FANN-2.2.0-Source\src\include" /ZI /nologo /W3 /WX- /Od /Oy- /D WIN32 /D _DEBUG /D _CONSOLE /D _UNICODE /D UNICODE /Gm /EHsc /RTC1 /MDd /GS /fp:precise /Zc:wchar_t /Zc:forScope /Fo"DEBUG\\" /Fd"DEBUG\VC110.PDB" /Gd /TP /analyze- C:\DEVELOP\WORKSPACE_VISUAL_STUDIO\LABORATORYWORK\LABORATORYWORK\SRC\RU\USATU\RBP-108M\ZAGIDULLINANDVAGAPOVA\MAIN.CPP
^C:\DEVELOP\WORKSPACE_VISUAL_STUDIO\LABORATORYWORK\LABORATORYWORK\LIBRARIES\FANN-2.2.0-SOURCE\EXAMPLES\XOR_SAMPLE.CPP
/c /ZI /nologo /W3 /WX- /Od /Oy- /D WIN32 /D _DEBUG /D _CONSOLE /D _UNICODE /D UNICODE /Gm /EHsc /RTC1 /MDd /GS /fp:precise /Zc:wchar_t /Zc:forScope /Fo"DEBUG\\" /Fd"DEBUG\VC110.PDB" /Gd /TP /analyze- C:\DEVELOP\WORKSPACE_VISUAL_STUDIO\LABORATORYWORK\LABORATORYWORK\LIBRARIES\FANN-2.2.0-SOURCE\EXAMPLES\XOR_SAMPLE.CPP
^C:\DEVELOP\WORKSPACE_VISUAL_STUDIO\LABORATORYWORK\LABORATORYWORK\LIBRARIES\FANN-2.2.0-SOURCE\EXAMPLES\CASCADE_TRAIN.C
/c /ZI /nologo /W3 /WX- /Od /Oy- /D WIN32 /D _DEBUG /D _CONSOLE /D _UNICODE /D UNICODE /Gm /EHsc /RTC1 /MDd /GS /fp:precise /Zc:wchar_t /Zc:forScope /Fo"DEBUG\\" /Fd"DEBUG\VC110.PDB" /Gd /TC /analyze- C:\DEVELOP\WORKSPACE_VISUAL_STUDIO\LABORATORYWORK\LABORATORYWORK\LIBRARIES\FANN-2.2.0-SOURCE\EXAMPLES\CASCADE_TRAIN.C
^C:\DEVELOP\WORKSPACE_VISUAL_STUDIO\LABORATORYWORK\LABORATORYWORK\LIBRARIES\FANN-2.2.0-SOURCE\EXAMPLES\MOMENTUMS.C
/c /ZI /nologo /W3 /WX- /Od /Oy- /D WIN32 /D _DEBUG /D _CONSOLE /D _UNICODE /D UNICODE /Gm /EHsc /RTC1 /MDd /GS /fp:precise /Zc:wchar_t /Zc:forScope /Fo"DEBUG\\" /Fd"DEBUG\VC110.PDB" /Gd /TC /analyze- C:\DEVELOP\WORKSPACE_VISUAL_STUDIO\LABORATORYWORK\LABORATORYWORK\LIBRARIES\FANN-2.2.0-SOURCE\EXAMPLES\MOMENTUMS.C
^C:\DEVELOP\WORKSPACE_VISUAL_STUDIO\LABORATORYWORK\LABORATORYWORK\LIBRARIES\FANN-2.2.0-SOURCE\EXAMPLES\MUSHROOM.C
/c /ZI /nologo /W3 /WX- /Od /Oy- /D WIN32 /D _DEBUG /D _CONSOLE /D _UNICODE /D UNICODE /Gm /EHsc /RTC1 /MDd /GS /fp:precise /Zc:wchar_t /Zc:forScope /Fo"DEBUG\\" /Fd"DEBUG\VC110.PDB" /Gd /TC /analyze- C:\DEVELOP\WORKSPACE_VISUAL_STUDIO\LABORATORYWORK\LABORATORYWORK\LIBRARIES\FANN-2.2.0-SOURCE\EXAMPLES\MUSHROOM.C
^C:\DEVELOP\WORKSPACE_VISUAL_STUDIO\LABORATORYWORK\LABORATORYWORK\LIBRARIES\FANN-2.2.0-SOURCE\EXAMPLES\ROBOT.C
/c /ZI /nologo /W3 /WX- /Od /Oy- /D WIN32 /D _DEBUG /D _CONSOLE /D _UNICODE /D UNICODE /Gm /EHsc /RTC1 /MDd /GS /fp:precise /Zc:wchar_t /Zc:forScope /Fo"DEBUG\\" /Fd"DEBUG\VC110.PDB" /Gd /TC /analyze- C:\DEVELOP\WORKSPACE_VISUAL_STUDIO\LABORATORYWORK\LABORATORYWORK\LIBRARIES\FANN-2.2.0-SOURCE\EXAMPLES\ROBOT.C
^C:\DEVELOP\WORKSPACE_VISUAL_STUDIO\LABORATORYWORK\LABORATORYWORK\LIBRARIES\FANN-2.2.0-SOURCE\EXAMPLES\SCALING_TEST.C
/c /ZI /nologo /W3 /WX- /Od /Oy- /D WIN32 /D _DEBUG /D _CONSOLE /D _UNICODE /D UNICODE /Gm /EHsc /RTC1 /MDd /GS /fp:precise /Zc:wchar_t /Zc:forScope /Fo"DEBUG\\" /Fd"DEBUG\VC110.PDB" /Gd /TC /analyze- C:\DEVELOP\WORKSPACE_VISUAL_STUDIO\LABORATORYWORK\LABORATORYWORK\LIBRARIES\FANN-2.2.0-SOURCE\EXAMPLES\SCALING_TEST.C
^C:\DEVELOP\WORKSPACE_VISUAL_STUDIO\LABORATORYWORK\LABORATORYWORK\LIBRARIES\FANN-2.2.0-SOURCE\EXAMPLES\SCALING_TRAIN.C
/c /ZI /nologo /W3 /WX- /Od /Oy- /D WIN32 /D _DEBUG /D _CONSOLE /D _UNICODE /D UNICODE /Gm /EHsc /RTC1 /MDd /GS /fp:precise /Zc:wchar_t /Zc:forScope /Fo"DEBUG\\" /Fd"DEBUG\VC110.PDB" /Gd /TC /analyze- C:\DEVELOP\WORKSPACE_VISUAL_STUDIO\LABORATORYWORK\LABORATORYWORK\LIBRARIES\FANN-2.2.0-SOURCE\EXAMPLES\SCALING_TRAIN.C
^C:\DEVELOP\WORKSPACE_VISUAL_STUDIO\LABORATORYWORK\LABORATORYWORK\LIBRARIES\FANN-2.2.0-SOURCE\EXAMPLES\SIMPLE_TEST.C
/c /ZI /nologo /W3 /WX- /Od /Oy- /D WIN32 /D _DEBUG /D _CONSOLE /D _UNICODE /D UNICODE /Gm /EHsc /RTC1 /MDd /GS /fp:precise /Zc:wchar_t /Zc:forScope /Fo"DEBUG\\" /Fd"DEBUG\VC110.PDB" /Gd /TC /analyze- C:\DEVELOP\WORKSPACE_VISUAL_STUDIO\LABORATORYWORK\LABORATORYWORK\LIBRARIES\FANN-2.2.0-SOURCE\EXAMPLES\SIMPLE_TEST.C
^C:\DEVELOP\WORKSPACE_VISUAL_STUDIO\LABORATORYWORK\LABORATORYWORK\LIBRARIES\FANN-2.2.0-SOURCE\EXAMPLES\SIMPLE_TRAIN.C
/c /ZI /nologo /W3 /WX- /Od /Oy- /D WIN32 /D _DEBUG /D _CONSOLE /D _UNICODE /D UNICODE /Gm /EHsc /RTC1 /MDd /GS /fp:precise /Zc:wchar_t /Zc:forScope /Fo"DEBUG\\" /Fd"DEBUG\VC110.PDB" /Gd /TC /analyze- C:\DEVELOP\WORKSPACE_VISUAL_STUDIO\LABORATORYWORK\LABORATORYWORK\LIBRARIES\FANN-2.2.0-SOURCE\EXAMPLES\SIMPLE_TRAIN.C
^C:\DEVELOP\WORKSPACE_VISUAL_STUDIO\LABORATORYWORK\LABORATORYWORK\LIBRARIES\FANN-2.2.0-SOURCE\EXAMPLES\STEEPNESS_TRAIN.C
/c /ZI /nologo /W3 /WX- /Od /Oy- /D WIN32 /D _DEBUG /D _CONSOLE /D _UNICODE /D UNICODE /Gm /EHsc /RTC1 /MDd /GS /fp:precise /Zc:wchar_t /Zc:forScope /Fo"DEBUG\\" /Fd"DEBUG\VC110.PDB" /Gd /TC /analyze- C:\DEVELOP\WORKSPACE_VISUAL_STUDIO\LABORATORYWORK\LABORATORYWORK\LIBRARIES\FANN-2.2.0-SOURCE\EXAMPLES\STEEPNESS_TRAIN.C
^C:\DEVELOP\WORKSPACE_VISUAL_STUDIO\LABORATORYWORK\LABORATORYWORK\LIBRARIES\FANN-2.2.0-SOURCE\EXAMPLES\XOR_TEST.C
/c /ZI /nologo /W3 /WX- /Od /Oy- /D WIN32 /D _DEBUG /D _CONSOLE /D _UNICODE /D UNICODE /Gm /EHsc /RTC1 /MDd /GS /fp:precise /Zc:wchar_t /Zc:forScope /Fo"DEBUG\\" /Fd"DEBUG\VC110.PDB" /Gd /TC /analyze- C:\DEVELOP\WORKSPACE_VISUAL_STUDIO\LABORATORYWORK\LABORATORYWORK\LIBRARIES\FANN-2.2.0-SOURCE\EXAMPLES\XOR_TEST.C
^C:\DEVELOP\WORKSPACE_VISUAL_STUDIO\LABORATORYWORK\LABORATORYWORK\LIBRARIES\FANN-2.2.0-SOURCE\EXAMPLES\XOR_TRAIN.C
/c /ZI /nologo /W3 /WX- /Od /Oy- /D WIN32 /D _DEBUG /D _CONSOLE /D _UNICODE /D UNICODE /Gm /EHsc /RTC1 /MDd /GS /fp:precise /Zc:wchar_t /Zc:forScope /Fo"DEBUG\\" /Fd"DEBUG\VC110.PDB" /Gd /TC /analyze- C:\DEVELOP\WORKSPACE_VISUAL_STUDIO\LABORATORYWORK\LABORATORYWORK\LIBRARIES\FANN-2.2.0-SOURCE\EXAMPLES\XOR_TRAIN.C
^C:\DEVELOP\WORKSPACE_VISUAL_STUDIO\LABORATORYWORK\LABORATORYWORK\LIBRARIES\FANN-2.2.0-SOURCE\SRC\DOUBLEFANN.C
/c /ZI /nologo /W3 /WX- /Od /Oy- /D WIN32 /D _DEBUG /D _CONSOLE /D _UNICODE /D UNICODE /Gm /EHsc /RTC1 /MDd /GS /fp:precise /Zc:wchar_t /Zc:forScope /Fo"DEBUG\\" /Fd"DEBUG\VC110.PDB" /Gd /TC /analyze- C:\DEVELOP\WORKSPACE_VISUAL_STUDIO\LABORATORYWORK\LABORATORYWORK\LIBRARIES\FANN-2.2.0-SOURCE\SRC\DOUBLEFANN.C
^C:\DEVELOP\WORKSPACE_VISUAL_STUDIO\LABORATORYWORK\LABORATORYWORK\LIBRARIES\FANN-2.2.0-SOURCE\SRC\FANN.C
/c /ZI /nologo /W3 /WX- /Od /Oy- /D WIN32 /D _DEBUG /D _CONSOLE /D _UNICODE /D UNICODE /Gm /EHsc /RTC1 /MDd /GS /fp:precise /Zc:wchar_t /Zc:forScope /Fo"DEBUG\\" /Fd"DEBUG\VC110.PDB" /Gd /TC /analyze- C:\DEVELOP\WORKSPACE_VISUAL_STUDIO\LABORATORYWORK\LABORATORYWORK\LIBRARIES\FANN-2.2.0-SOURCE\SRC\FANN.C
^C:\DEVELOP\WORKSPACE_VISUAL_STUDIO\LABORATORYWORK\LABORATORYWORK\LIBRARIES\FANN-2.2.0-SOURCE\SRC\FANN_CASCADE.C
/c /ZI /nologo /W3 /WX- /Od /Oy- /D WIN32 /D _DEBUG /D _CONSOLE /D _UNICODE /D UNICODE /Gm /EHsc /RTC1 /MDd /GS /fp:precise /Zc:wchar_t /Zc:forScope /Fo"DEBUG\\" /Fd"DEBUG\VC110.PDB" /Gd /TC /analyze- C:\DEVELOP\WORKSPACE_VISUAL_STUDIO\LABORATORYWORK\LABORATORYWORK\LIBRARIES\FANN-2.2.0-SOURCE\SRC\FANN_CASCADE.C
^C:\DEVELOP\WORKSPACE_VISUAL_STUDIO\LABORATORYWORK\LABORATORYWORK\LIBRARIES\FANN-2.2.0-SOURCE\SRC\FANN_ERROR.C
/c /ZI /nologo /W3 /WX- /Od /Oy- /D WIN32 /D _DEBUG /D _CONSOLE /D _UNICODE /D UNICODE /Gm /EHsc /RTC1 /MDd /GS /fp:precise /Zc:wchar_t /Zc:forScope /Fo"DEBUG\\" /Fd"DEBUG\VC110.PDB" /Gd /TC /analyze- C:\DEVELOP\WORKSPACE_VISUAL_STUDIO\LABORATORYWORK\LABORATORYWORK\LIBRARIES\FANN-2.2.0-SOURCE\SRC\FANN_ERROR.C
^C:\DEVELOP\WORKSPACE_VISUAL_STUDIO\LABORATORYWORK\LABORATORYWORK\LIBRARIES\FANN-2.2.0-SOURCE\SRC\FANN_IO.C
/c /ZI /nologo /W3 /WX- /Od /Oy- /D WIN32 /D _DEBUG /D _CONSOLE /D _UNICODE /D UNICODE /Gm /EHsc /RTC1 /MDd /GS /fp:precise /Zc:wchar_t /Zc:forScope /Fo"DEBUG\\" /Fd"DEBUG\VC110.PDB" /Gd /TC /analyze- C:\DEVELOP\WORKSPACE_VISUAL_STUDIO\LABORATORYWORK\LABORATORYWORK\LIBRARIES\FANN-2.2.0-SOURCE\SRC\FANN_IO.C
^C:\DEVELOP\WORKSPACE_VISUAL_STUDIO\LABORATORYWORK\LABORATORYWORK\LIBRARIES\FANN-2.2.0-SOURCE\SRC\FANN_TRAIN.C
/c /ZI /nologo /W3 /WX- /Od /Oy- /D WIN32 /D _DEBUG /D _CONSOLE /D _UNICODE /D UNICODE /Gm /EHsc /RTC1 /MDd /GS /fp:precise /Zc:wchar_t /Zc:forScope /Fo"DEBUG\\" /Fd"DEBUG\VC110.PDB" /Gd /TC /analyze- C:\DEVELOP\WORKSPACE_VISUAL_STUDIO\LABORATORYWORK\LABORATORYWORK\LIBRARIES\FANN-2.2.0-SOURCE\SRC\FANN_TRAIN.C
^C:\DEVELOP\WORKSPACE_VISUAL_STUDIO\LABORATORYWORK\LABORATORYWORK\LIBRARIES\FANN-2.2.0-SOURCE\SRC\FANN_TRAIN_DATA.C
/c /ZI /nologo /W3 /WX- /Od /Oy- /D WIN32 /D _DEBUG /D _CONSOLE /D _UNICODE /D UNICODE /Gm /EHsc /RTC1 /MDd /GS /fp:precise /Zc:wchar_t /Zc:forScope /Fo"DEBUG\\" /Fd"DEBUG\VC110.PDB" /Gd /TC /analyze- C:\DEVELOP\WORKSPACE_VISUAL_STUDIO\LABORATORYWORK\LABORATORYWORK\LIBRARIES\FANN-2.2.0-SOURCE\SRC\FANN_TRAIN_DATA.C
^C:\DEVELOP\WORKSPACE_VISUAL_STUDIO\LABORATORYWORK\LABORATORYWORK\LIBRARIES\FANN-2.2.0-SOURCE\SRC\FIXEDFANN.C
/c /ZI /nologo /W3 /WX- /Od /Oy- /D WIN32 /D _DEBUG /D _CONSOLE /D _UNICODE /D UNICODE /Gm /EHsc /RTC1 /MDd /GS /fp:precise /Zc:wchar_t /Zc:forScope /Fo"DEBUG\\" /Fd"DEBUG\VC110.PDB" /Gd /TC /analyze- C:\DEVELOP\WORKSPACE_VISUAL_STUDIO\LABORATORYWORK\LABORATORYWORK\LIBRARIES\FANN-2.2.0-SOURCE\SRC\FIXEDFANN.C
^C:\DEVELOP\WORKSPACE_VISUAL_STUDIO\LABORATORYWORK\LABORATORYWORK\LIBRARIES\FANN-2.2.0-SOURCE\SRC\FLOATFANN.C
/c /ZI /nologo /W3 /WX- /Od /Oy- /D WIN32 /D _DEBUG /D _CONSOLE /D _UNICODE /D UNICODE /Gm /EHsc /RTC1 /MDd /GS /fp:precise /Zc:wchar_t /Zc:forScope /Fo"DEBUG\\" /Fd"DEBUG\VC110.PDB" /Gd /TC /analyze- C:\DEVELOP\WORKSPACE_VISUAL_STUDIO\LABORATORYWORK\LABORATORYWORK\LIBRARIES\FANN-2.2.0-SOURCE\SRC\FLOATFANN.C
^C:\DEVELOP\WORKSPACE_VISUAL_STUDIO\LABORATORYWORK\LABORATORYWORK\MYLIBRARIES\WORKWITHFILES\CREATEHTML.CPP
/c /I"C:\Develop\Workspace_visual_studio\FANN-2.2.0-Source\src\include" /ZI /nologo /W3 /WX- /Od /Oy- /D WIN32 /D _DEBUG /D _CONSOLE /D _UNICODE /D UNICODE /Gm /EHsc /RTC1 /MDd /GS /fp:precise /Zc:wchar_t /Zc:forScope /Fo"DEBUG\\" /Fd"DEBUG\VC110.PDB" /Gd /TP /analyze- C:\DEVELOP\WORKSPACE_VISUAL_STUDIO\LABORATORYWORK\LABORATORYWORK\MYLIBRARIES\WORKWITHFILES\CREATEHTML.CPP
^C:\DEVELOP\WORKSPACE_VISUAL_STUDIO\LABORATORYWORK\LABORATORYWORK\MYLIBRARIES\WORKWITHFILES\CREATETXTFILE.CPP
/c /I"C:\Develop\Workspace_visual_studio\FANN-2.2.0-Source\src\include" /ZI /nologo /W3 /WX- /Od /Oy- /D WIN32 /D _DEBUG /D _CONSOLE /D _UNICODE /D UNICODE /Gm /EHsc /RTC1 /MDd /GS /fp:precise /Zc:wchar_t /Zc:forScope /Fo"DEBUG\\" /Fd"DEBUG\VC110.PDB" /Gd /TP /analyze- C:\DEVELOP\WORKSPACE_VISUAL_STUDIO\LABORATORYWORK\LABORATORYWORK\MYLIBRARIES\WORKWITHFILES\CREATETXTFILE.CPP
^C:\DEVELOP\WORKSPACE_VISUAL_STUDIO\LABORATORYWORK\LABORATORYWORK\MYLIBRARIES\WORKWITHFILES\CREATEXMLFILE.CPP
/c /I"C:\Develop\Workspace_visual_studio\FANN-2.2.0-Source\src\include" /ZI /nologo /W3 /WX- /Od /Oy- /D WIN32 /D _DEBUG /D _CONSOLE /D _UNICODE /D UNICODE /Gm /EHsc /RTC1 /MDd /GS /fp:precise /Zc:wchar_t /Zc:forScope /Fo"DEBUG\\" /Fd"DEBUG\VC110.PDB" /Gd /TP /analyze- C:\DEVELOP\WORKSPACE_VISUAL_STUDIO\LABORATORYWORK\LABORATORYWORK\MYLIBRARIES\WORKWITHFILES\CREATEXMLFILE.CPP
^C:\DEVELOP\WORKSPACE_VISUAL_STUDIO\LABORATORYWORK\LABORATORYWORK\MYLIBRARIES\WORKWITHFILES\GENERATIONDATA.CPP
/c /I"C:\Develop\Workspace_visual_studio\FANN-2.2.0-Source\src\include" /ZI /nologo /W3 /WX- /Od /Oy- /D WIN32 /D _DEBUG /D _CONSOLE /D _UNICODE /D UNICODE /Gm /EHsc /RTC1 /MDd /GS /fp:precise /Zc:wchar_t /Zc:forScope /Fo"DEBUG\\" /Fd"DEBUG\VC110.PDB" /Gd /TP /analyze- C:\DEVELOP\WORKSPACE_VISUAL_STUDIO\LABORATORYWORK\LABORATORYWORK\MYLIBRARIES\WORKWITHFILES\GENERATIONDATA.CPP
^C:\DEVELOP\WORKSPACE_VISUAL_STUDIO\LABORATORYWORK\LABORATORYWORK\MYLIBRARIES\WORKWITHFILES\READXMLFILE.CPP
/c /I"C:\Develop\Workspace_visual_studio\FANN-2.2.0-Source\src\include" /ZI /nologo /W3 /WX- /Od /Oy- /D WIN32 /D _DEBUG /D _CONSOLE /D _UNICODE /D UNICODE /Gm /EHsc /RTC1 /MDd /GS /fp:precise /Zc:wchar_t /Zc:forScope /Fo"DEBUG\\" /Fd"DEBUG\VC110.PDB" /Gd /TP /analyze- C:\DEVELOP\WORKSPACE_VISUAL_STUDIO\LABORATORYWORK\LABORATORYWORK\MYLIBRARIES\WORKWITHFILES\READXMLFILE.CPP
^C:\DEVELOP\WORKSPACE_VISUAL_STUDIO\LABORATORYWORK\LABORATORYWORK\MYLIBRARIES\MENU\WRITEDATATABLECONSOLE\WRITEDATA.CPP
/c /I"C:\Develop\Workspace_visual_studio\FANN-2.2.0-Source\src\include" /ZI /nologo /W3 /WX- /Od /Oy- /D WIN32 /D _DEBUG /D _CONSOLE /D _UNICODE /D UNICODE /Gm /EHsc /RTC1 /MDd /GS /fp:precise /Zc:wchar_t /Zc:forScope /Fo"DEBUG\\" /Fd"DEBUG\VC110.PDB" /Gd /TP /analyze- C:\DEVELOP\WORKSPACE_VISUAL_STUDIO\LABORATORYWORK\LABORATORYWORK\MYLIBRARIES\MENU\WRITEDATATABLECONSOLE\WRITEDATA.CPP
^C:\DEVELOP\WORKSPACE_VISUAL_STUDIO\LABORATORYWORK\LABORATORYWORK\MYLIBRARIES\MENU\GENERALMENU\MENUS.CPP
/c /I"C:\Develop\Workspace_visual_studio\FANN-2.2.0-Source\src\include" /ZI /nologo /W3 /WX- /Od /Oy- /D WIN32 /D _DEBUG /D _CONSOLE /D _UNICODE /D UNICODE /Gm /EHsc /RTC1 /MDd /GS /fp:precise /Zc:wchar_t /Zc:forScope /Fo"DEBUG\\" /Fd"DEBUG\VC110.PDB" /Gd /TP /analyze- C:\DEVELOP\WORKSPACE_VISUAL_STUDIO\LABORATORYWORK\LABORATORYWORK\MYLIBRARIES\MENU\GENERALMENU\MENUS.CPP
^C:\DEVELOP\WORKSPACE_VISUAL_STUDIO\LABORATORYWORK\LABORATORYWORK\MYLIBRARIES\TITEM\WORKWITHTITEM.CPP
/c /I"C:\Develop\Workspace_visual_studio\FANN-2.2.0-Source\src\include" /ZI /nologo /W3 /WX- /Od /Oy- /D WIN32 /D _DEBUG /D _CONSOLE /D _UNICODE /D UNICODE /Gm /EHsc /RTC1 /MDd /GS /fp:precise /Zc:wchar_t /Zc:forScope /Fo"DEBUG\\" /Fd"DEBUG\VC110.PDB" /Gd /TP /analyze- C:\DEVELOP\WORKSPACE_VISUAL_STUDIO\LABORATORYWORK\LABORATORYWORK\MYLIBRARIES\TITEM\WORKWITHTITEM.CPP
^C:\DEVELOP\WORKSPACE_VISUAL_STUDIO\LABORATORYWORK\LABORATORYWORK\LIBRARIES\ALGLIB\ALGLIBINTERNAL.CPP
/c /I"C:\Develop\Workspace_visual_studio\FANN-2.2.0-Source\src\include" /ZI /nologo /W3 /WX- /Od /Oy- /D WIN32 /D _DEBUG /D _CONSOLE /D _UNICODE /D UNICODE /Gm /EHsc /RTC1 /MDd /GS /fp:precise /Zc:wchar_t /Zc:forScope /Fo"DEBUG\\" /Fd"DEBUG\VC110.PDB" /Gd /TP /analyze- C:\DEVELOP\WORKSPACE_VISUAL_STUDIO\LABORATORYWORK\LABORATORYWORK\LIBRARIES\ALGLIB\ALGLIBINTERNAL.CPP
^C:\DEVELOP\WORKSPACE_VISUAL_STUDIO\LABORATORYWORK\LABORATORYWORK\LIBRARIES\ALGLIB\ALGLIBMISC.CPP
/c /I"C:\Develop\Workspace_visual_studio\FANN-2.2.0-Source\src\include" /ZI /nologo /W3 /WX- /Od /Oy- /D WIN32 /D _DEBUG /D _CONSOLE /D _UNICODE /D UNICODE /Gm /EHsc /RTC1 /MDd /GS /fp:precise /Zc:wchar_t /Zc:forScope /Fo"DEBUG\\" /Fd"DEBUG\VC110.PDB" /Gd /TP /analyze- C:\DEVELOP\WORKSPACE_VISUAL_STUDIO\LABORATORYWORK\LABORATORYWORK\LIBRARIES\ALGLIB\ALGLIBMISC.CPP
^C:\DEVELOP\WORKSPACE_VISUAL_STUDIO\LABORATORYWORK\LABORATORYWORK\LIBRARIES\ALGLIB\AP.CPP
/c /I"C:\Develop\Workspace_visual_studio\FANN-2.2.0-Source\src\include" /ZI /nologo /W3 /WX- /Od /Oy- /D WIN32 /D _DEBUG /D _CONSOLE /D _UNICODE /D UNICODE /Gm /EHsc /RTC1 /MDd /GS /fp:precise /Zc:wchar_t /Zc:forScope /Fo"DEBUG\\" /Fd"DEBUG\VC110.PDB" /Gd /TP /analyze- C:\DEVELOP\WORKSPACE_VISUAL_STUDIO\LABORATORYWORK\LABORATORYWORK\LIBRARIES\ALGLIB\AP.CPP
^C:\DEVELOP\WORKSPACE_VISUAL_STUDIO\LABORATORYWORK\LABORATORYWORK\LIBRARIES\ALGLIB\DATAANALYSIS.CPP
/c /I"C:\Develop\Workspace_visual_studio\FANN-2.2.0-Source\src\include" /ZI /nologo /W3 /WX- /Od /Oy- /D WIN32 /D _DEBUG /D _CONSOLE /D _UNICODE /D UNICODE /Gm /EHsc /RTC1 /MDd /GS /fp:precise /Zc:wchar_t /Zc:forScope /Fo"DEBUG\\" /Fd"DEBUG\VC110.PDB" /Gd /TP /analyze- C:\DEVELOP\WORKSPACE_VISUAL_STUDIO\LABORATORYWORK\LABORATORYWORK\LIBRARIES\ALGLIB\DATAANALYSIS.CPP
^C:\DEVELOP\WORKSPACE_VISUAL_STUDIO\LABORATORYWORK\LABORATORYWORK\LIBRARIES\ALGLIB\DIFFEQUATIONS.CPP
/c /I"C:\Develop\Workspace_visual_studio\FANN-2.2.0-Source\src\include" /ZI /nologo /W3 /WX- /Od /Oy- /D WIN32 /D _DEBUG /D _CONSOLE /D _UNICODE /D UNICODE /Gm /EHsc /RTC1 /MDd /GS /fp:precise /Zc:wchar_t /Zc:forScope /Fo"DEBUG\\" /Fd"DEBUG\VC110.PDB" /Gd /TP /analyze- C:\DEVELOP\WORKSPACE_VISUAL_STUDIO\LABORATORYWORK\LABORATORYWORK\LIBRARIES\ALGLIB\DIFFEQUATIONS.CPP
^C:\DEVELOP\WORKSPACE_VISUAL_STUDIO\LABORATORYWORK\LABORATORYWORK\LIBRARIES\ALGLIB\FASTTRANSFORMS.CPP
/c /I"C:\Develop\Workspace_visual_studio\FANN-2.2.0-Source\src\include" /ZI /nologo /W3 /WX- /Od /Oy- /D WIN32 /D _DEBUG /D _CONSOLE /D _UNICODE /D UNICODE /Gm /EHsc /RTC1 /MDd /GS /fp:precise /Zc:wchar_t /Zc:forScope /Fo"DEBUG\\" /Fd"DEBUG\VC110.PDB" /Gd /TP /analyze- C:\DEVELOP\WORKSPACE_VISUAL_STUDIO\LABORATORYWORK\LABORATORYWORK\LIBRARIES\ALGLIB\FASTTRANSFORMS.CPP
^C:\DEVELOP\WORKSPACE_VISUAL_STUDIO\LABORATORYWORK\LABORATORYWORK\LIBRARIES\ALGLIB\INTEGRATION.CPP
/c /I"C:\Develop\Workspace_visual_studio\FANN-2.2.0-Source\src\include" /ZI /nologo /W3 /WX- /Od /Oy- /D WIN32 /D _DEBUG /D _CONSOLE /D _UNICODE /D UNICODE /Gm /EHsc /RTC1 /MDd /GS /fp:precise /Zc:wchar_t /Zc:forScope /Fo"DEBUG\\" /Fd"DEBUG\VC110.PDB" /Gd /TP /analyze- C:\DEVELOP\WORKSPACE_VISUAL_STUDIO\LABORATORYWORK\LABORATORYWORK\LIBRARIES\ALGLIB\INTEGRATION.CPP
^C:\DEVELOP\WORKSPACE_VISUAL_STUDIO\LABORATORYWORK\LABORATORYWORK\LIBRARIES\ALGLIB\INTERPOLATION.CPP
/c /I"C:\Develop\Workspace_visual_studio\FANN-2.2.0-Source\src\include" /ZI /nologo /W3 /WX- /Od /Oy- /D WIN32 /D _DEBUG /D _CONSOLE /D _UNICODE /D UNICODE /Gm /EHsc /RTC1 /MDd /GS /fp:precise /Zc:wchar_t /Zc:forScope /Fo"DEBUG\\" /Fd"DEBUG\VC110.PDB" /Gd /TP /analyze- C:\DEVELOP\WORKSPACE_VISUAL_STUDIO\LABORATORYWORK\LABORATORYWORK\LIBRARIES\ALGLIB\INTERPOLATION.CPP
^C:\DEVELOP\WORKSPACE_VISUAL_STUDIO\LABORATORYWORK\LABORATORYWORK\LIBRARIES\ALGLIB\LINALG.CPP
/c /I"C:\Develop\Workspace_visual_studio\FANN-2.2.0-Source\src\include" /ZI /nologo /W3 /WX- /Od /Oy- /D WIN32 /D _DEBUG /D _CONSOLE /D _UNICODE /D UNICODE /Gm /EHsc /RTC1 /MDd /GS /fp:precise /Zc:wchar_t /Zc:forScope /Fo"DEBUG\\" /Fd"DEBUG\VC110.PDB" /Gd /TP /analyze- C:\DEVELOP\WORKSPACE_VISUAL_STUDIO\LABORATORYWORK\LABORATORYWORK\LIBRARIES\ALGLIB\LINALG.CPP
^C:\DEVELOP\WORKSPACE_VISUAL_STUDIO\LABORATORYWORK\LABORATORYWORK\LIBRARIES\ALGLIB\OPTIMIZATION.CPP
/c /I"C:\Develop\Workspace_visual_studio\FANN-2.2.0-Source\src\include" /ZI /nologo /W3 /WX- /Od /Oy- /D WIN32 /D _DEBUG /D _CONSOLE /D _UNICODE /D UNICODE /Gm /EHsc /RTC1 /MDd /GS /fp:precise /Zc:wchar_t /Zc:forScope /Fo"DEBUG\\" /Fd"DEBUG\VC110.PDB" /Gd /TP /analyze- C:\DEVELOP\WORKSPACE_VISUAL_STUDIO\LABORATORYWORK\LABORATORYWORK\LIBRARIES\ALGLIB\OPTIMIZATION.CPP
^C:\DEVELOP\WORKSPACE_VISUAL_STUDIO\LABORATORYWORK\LABORATORYWORK\LIBRARIES\ALGLIB\SOLVERS.CPP
/c /I"C:\Develop\Workspace_visual_studio\FANN-2.2.0-Source\src\include" /ZI /nologo /W3 /WX- /Od /Oy- /D WIN32 /D _DEBUG /D _CONSOLE /D _UNICODE /D UNICODE /Gm /EHsc /RTC1 /MDd /GS /fp:precise /Zc:wchar_t /Zc:forScope /Fo"DEBUG\\" /Fd"DEBUG\VC110.PDB" /Gd /TP /analyze- C:\DEVELOP\WORKSPACE_VISUAL_STUDIO\LABORATORYWORK\LABORATORYWORK\LIBRARIES\ALGLIB\SOLVERS.CPP
^C:\DEVELOP\WORKSPACE_VISUAL_STUDIO\LABORATORYWORK\LABORATORYWORK\LIBRARIES\ALGLIB\SPECIALFUNCTIONS.CPP
/c /I"C:\Develop\Workspace_visual_studio\FANN-2.2.0-Source\src\include" /ZI /nologo /W3 /WX- /Od /Oy- /D WIN32 /D _DEBUG /D _CONSOLE /D _UNICODE /D UNICODE /Gm /EHsc /RTC1 /MDd /GS /fp:precise /Zc:wchar_t /Zc:forScope /Fo"DEBUG\\" /Fd"DEBUG\VC110.PDB" /Gd /TP /analyze- C:\DEVELOP\WORKSPACE_VISUAL_STUDIO\LABORATORYWORK\LABORATORYWORK\LIBRARIES\ALGLIB\SPECIALFUNCTIONS.CPP
^C:\DEVELOP\WORKSPACE_VISUAL_STUDIO\LABORATORYWORK\LABORATORYWORK\LIBRARIES\ALGLIB\STATISTICS.CPP
/c /I"C:\Develop\Workspace_visual_studio\FANN-2.2.0-Source\src\include" /ZI /nologo /W3 /WX- /Od /Oy- /D WIN32 /D _DEBUG /D _CONSOLE /D _UNICODE /D UNICODE /Gm /EHsc /RTC1 /MDd /GS /fp:precise /Zc:wchar_t /Zc:forScope /Fo"DEBUG\\" /Fd"DEBUG\VC110.PDB" /Gd /TP /analyze- C:\DEVELOP\WORKSPACE_VISUAL_STUDIO\LABORATORYWORK\LABORATORYWORK\LIBRARIES\ALGLIB\STATISTICS.CPP
^C:\DEVELOP\WORKSPACE_VISUAL_STUDIO\LABORATORYWORK\LABORATORYWORK\MYLIBRARIES\NEIRON\NEIRONALGLIB.CPP
/c /I"C:\Develop\Workspace_visual_studio\FANN-2.2.0-Source\src\include" /ZI /nologo /W3 /WX- /Od /Oy- /D WIN32 /D _DEBUG /D _CONSOLE /D _UNICODE /D UNICODE /Gm /EHsc /RTC1 /MDd /GS /fp:precise /Zc:wchar_t /Zc:forScope /Fo"DEBUG\\" /Fd"DEBUG\VC110.PDB" /Gd /TP /analyze- C:\DEVELOP\WORKSPACE_VISUAL_STUDIO\LABORATORYWORK\LABORATORYWORK\MYLIBRARIES\NEIRON\NEIRONALGLIB.CPP
