^C:\DEVELOP\WORKSPACE_VISUAL_STUDIO\LABORATORYWORK\LABORATORYWORK\LIBRARIES\TABLEPRINTER\TABLE_PRINTER.CPP|C:\DEVELOP\WORKSPACE_VISUAL_STUDIO\LABORATORYWORK\LABORATORYWORK\LIBRARIES\TINY\TINYXML2.CPP
C:\DEVELOP\WORKSPACE_VISUAL_STUDIO\LABORATORYWORK\LABORATORYWORK\DEBUG\TABLE_PRINTER.OBJ
C:\DEVELOP\WORKSPACE_VISUAL_STUDIO\LABORATORYWORK\LABORATORYWORK\DEBUG\TINYXML2.OBJ
^C:\DEVELOP\WORKSPACE_VISUAL_STUDIO\LABORATORYWORK\LABORATORYWORK\LIBRARIES\TABLEPRINTER\TABLE_PRINTER.CPP
C:\DEVELOP\WORKSPACE_VISUAL_STUDIO\LABORATORYWORK\LABORATORYWORK\DEBUG\VC110.PDB
^C:\DEVELOP\WORKSPACE_VISUAL_STUDIO\LABORATORYWORK\LABORATORYWORK\LIBRARIES\TINY\TINYXML2.CPP
C:\DEVELOP\WORKSPACE_VISUAL_STUDIO\LABORATORYWORK\LABORATORYWORK\DEBUG\VC110.PDB
^C:\DEVELOP\WORKSPACE_VISUAL_STUDIO\LABORATORYWORK\LABORATORYWORK\LIBRARIES\BIGDECIMAL\BIGDECIMAL.CPP|C:\DEVELOP\WORKSPACE_VISUAL_STUDIO\LABORATORYWORK\LABORATORYWORK\MYLIBRARIES\NEIRON\NEIRONFANN.CPP|C:\DEVELOP\WORKSPACE_VISUAL_STUDIO\LABORATORYWORK\LABORATORYWORK\MYLIBRARIES\TITEM\TITEM.CPP|C:\DEVELOP\WORKSPACE_VISUAL_STUDIO\LABORATORYWORK\LABORATORYWORK\SRC\RU\USATU\RBP-108M\ZAGIDULLINANDVAGAPOVA\MAIN.CPP
C:\DEVELOP\WORKSPACE_VISUAL_STUDIO\LABORATORYWORK\LABORATORYWORK\DEBUG\BIGDECIMAL.OBJ
C:\DEVELOP\WORKSPACE_VISUAL_STUDIO\LABORATORYWORK\LABORATORYWORK\DEBUG\NEIRONFANN.OBJ
C:\DEVELOP\WORKSPACE_VISUAL_STUDIO\LABORATORYWORK\LABORATORYWORK\DEBUG\TITEM.OBJ
C:\DEVELOP\WORKSPACE_VISUAL_STUDIO\LABORATORYWORK\LABORATORYWORK\DEBUG\MAIN.OBJ
^C:\DEVELOP\WORKSPACE_VISUAL_STUDIO\LABORATORYWORK\LABORATORYWORK\LIBRARIES\BIGDECIMAL\BIGDECIMAL.CPP
C:\DEVELOP\WORKSPACE_VISUAL_STUDIO\LABORATORYWORK\LABORATORYWORK\DEBUG\VC110.PDB
^C:\DEVELOP\WORKSPACE_VISUAL_STUDIO\LABORATORYWORK\LABORATORYWORK\MYLIBRARIES\NEIRON\NEIRONFANN.CPP
C:\DEVELOP\WORKSPACE_VISUAL_STUDIO\LABORATORYWORK\LABORATORYWORK\DEBUG\VC110.PDB
^C:\DEVELOP\WORKSPACE_VISUAL_STUDIO\LABORATORYWORK\LABORATORYWORK\MYLIBRARIES\TITEM\TITEM.CPP
C:\DEVELOP\WORKSPACE_VISUAL_STUDIO\LABORATORYWORK\LABORATORYWORK\DEBUG\VC110.PDB
^C:\DEVELOP\WORKSPACE_VISUAL_STUDIO\LABORATORYWORK\LABORATORYWORK\SRC\RU\USATU\RBP-108M\ZAGIDULLINANDVAGAPOVA\MAIN.CPP
C:\DEVELOP\WORKSPACE_VISUAL_STUDIO\LABORATORYWORK\LABORATORYWORK\DEBUG\VC110.PDB
C:\DEVELOP\WORKSPACE_VISUAL_STUDIO\LABORATORYWORK\LABORATORYWORK\DEBUG\MAIN.OBJ
^C:\DEVELOP\WORKSPACE_VISUAL_STUDIO\LABORATORYWORK\LABORATORYWORK\LIBRARIES\FANN-2.2.0-SOURCE\EXAMPLES\XOR_SAMPLE.CPP|C:\DEVELOP\WORKSPACE_VISUAL_STUDIO\LABORATORYWORK\LABORATORYWORK\MYLIBRARIES\TITEM\TITEM.CPP
C:\DEVELOP\WORKSPACE_VISUAL_STUDIO\LABORATORYWORK\LABORATORYWORK\DEBUG\TITEM.OBJ
^C:\DEVELOP\WORKSPACE_VISUAL_STUDIO\LABORATORYWORK\LABORATORYWORK\LIBRARIES\FANN-2.2.0-SOURCE\EXAMPLES\XOR_SAMPLE.CPP
C:\DEVELOP\WORKSPACE_VISUAL_STUDIO\LABORATORYWORK\LABORATORYWORK\DEBUG\VC110.PDB
C:\DEVELOP\WORKSPACE_VISUAL_STUDIO\LABORATORYWORK\LABORATORYWORK\DEBUG\XOR_SAMPLE.OBJ
^C:\DEVELOP\WORKSPACE_VISUAL_STUDIO\LABORATORYWORK\LABORATORYWORK\LIBRARIES\FANN-2.2.0-SOURCE\EXAMPLES\CASCADE_TRAIN.C|C:\DEVELOP\WORKSPACE_VISUAL_STUDIO\LABORATORYWORK\LABORATORYWORK\LIBRARIES\FANN-2.2.0-SOURCE\EXAMPLES\MOMENTUMS.C|C:\DEVELOP\WORKSPACE_VISUAL_STUDIO\LABORATORYWORK\LABORATORYWORK\LIBRARIES\FANN-2.2.0-SOURCE\EXAMPLES\MUSHROOM.C|C:\DEVELOP\WORKSPACE_VISUAL_STUDIO\LABORATORYWORK\LABORATORYWORK\LIBRARIES\FANN-2.2.0-SOURCE\EXAMPLES\ROBOT.C|C:\DEVELOP\WORKSPACE_VISUAL_STUDIO\LABORATORYWORK\LABORATORYWORK\LIBRARIES\FANN-2.2.0-SOURCE\EXAMPLES\SCALING_TEST.C|C:\DEVELOP\WORKSPACE_VISUAL_STUDIO\LABORATORYWORK\LABORATORYWORK\LIBRARIES\FANN-2.2.0-SOURCE\EXAMPLES\SCALING_TRAIN.C|C:\DEVELOP\WORKSPACE_VISUAL_STUDIO\LABORATORYWORK\LABORATORYWORK\LIBRARIES\FANN-2.2.0-SOURCE\EXAMPLES\SIMPLE_TEST.C|C:\DEVELOP\WORKSPACE_VISUAL_STUDIO\LABORATORYWORK\LABORATORYWORK\LIBRARIES\FANN-2.2.0-SOURCE\EXAMPLES\SIMPLE_TRAIN.C|C:\DEVELOP\WORKSPACE_VISUAL_STUDIO\LABORATORYWORK\LABORATORYWORK\LIBRARIES\FANN-2.2.0-SOURCE\EXAMPLES\STEEPNESS_TRAIN.C|C:\DEVELOP\WORKSPACE_VISUAL_STUDIO\LABORATORYWORK\LABORATORYWORK\LIBRARIES\FANN-2.2.0-SOURCE\EXAMPLES\XOR_TEST.C|C:\DEVELOP\WORKSPACE_VISUAL_STUDIO\LABORATORYWORK\LABORATORYWORK\LIBRARIES\FANN-2.2.0-SOURCE\EXAMPLES\XOR_TRAIN.C|C:\DEVELOP\WORKSPACE_VISUAL_STUDIO\LABORATORYWORK\LABORATORYWORK\LIBRARIES\FANN-2.2.0-SOURCE\SRC\DOUBLEFANN.C|C:\DEVELOP\WORKSPACE_VISUAL_STUDIO\LABORATORYWORK\LABORATORYWORK\LIBRARIES\FANN-2.2.0-SOURCE\SRC\FANN.C|C:\DEVELOP\WORKSPACE_VISUAL_STUDIO\LABORATORYWORK\LABORATORYWORK\LIBRARIES\FANN-2.2.0-SOURCE\SRC\FANN_CASCADE.C|C:\DEVELOP\WORKSPACE_VISUAL_STUDIO\LABORATORYWORK\LABORATORYWORK\LIBRARIES\FANN-2.2.0-SOURCE\SRC\FANN_ERROR.C|C:\DEVELOP\WORKSPACE_VISUAL_STUDIO\LABORATORYWORK\LABORATORYWORK\LIBRARIES\FANN-2.2.0-SOURCE\SRC\FANN_IO.C|C:\DEVELOP\WORKSPACE_VISUAL_STUDIO\LABORATORYWORK\LABORATORYWORK\LIBRARIES\FANN-2.2.0-SOURCE\SRC\FANN_TRAIN.C|C:\DEVELOP\WORKSPACE_VISUAL_STUDIO\LABORATORYWORK\LABORATORYWORK\LIBRARIES\FANN-2.2.0-SOURCE\SRC\FANN_TRAIN_DATA.C|C:\DEVELOP\WORKSPACE_VISUAL_STUDIO\LABORATORYWORK\LABORATORYWORK\LIBRARIES\FANN-2.2.0-SOURCE\SRC\FIXEDFANN.C|C:\DEVELOP\WORKSPACE_VISUAL_STUDIO\LABORATORYWORK\LABORATORYWORK\LIBRARIES\FANN-2.2.0-SOURCE\SRC\FLOATFANN.C
C:\DEVELOP\WORKSPACE_VISUAL_STUDIO\LABORATORYWORK\LABORATORYWORK\DEBUG\CASCADE_TRAIN.OBJ
C:\DEVELOP\WORKSPACE_VISUAL_STUDIO\LABORATORYWORK\LABORATORYWORK\DEBUG\MOMENTUMS.OBJ
C:\DEVELOP\WORKSPACE_VISUAL_STUDIO\LABORATORYWORK\LABORATORYWORK\DEBUG\MUSHROOM.OBJ
C:\DEVELOP\WORKSPACE_VISUAL_STUDIO\LABORATORYWORK\LABORATORYWORK\DEBUG\ROBOT.OBJ
C:\DEVELOP\WORKSPACE_VISUAL_STUDIO\LABORATORYWORK\LABORATORYWORK\DEBUG\SCALING_TEST.OBJ
C:\DEVELOP\WORKSPACE_VISUAL_STUDIO\LABORATORYWORK\LABORATORYWORK\DEBUG\SCALING_TRAIN.OBJ
C:\DEVELOP\WORKSPACE_VISUAL_STUDIO\LABORATORYWORK\LABORATORYWORK\DEBUG\SIMPLE_TEST.OBJ
C:\DEVELOP\WORKSPACE_VISUAL_STUDIO\LABORATORYWORK\LABORATORYWORK\DEBUG\SIMPLE_TRAIN.OBJ
C:\DEVELOP\WORKSPACE_VISUAL_STUDIO\LABORATORYWORK\LABORATORYWORK\DEBUG\STEEPNESS_TRAIN.OBJ
C:\DEVELOP\WORKSPACE_VISUAL_STUDIO\LABORATORYWORK\LABORATORYWORK\DEBUG\XOR_TEST.OBJ
C:\DEVELOP\WORKSPACE_VISUAL_STUDIO\LABORATORYWORK\LABORATORYWORK\DEBUG\XOR_TRAIN.OBJ
^C:\DEVELOP\WORKSPACE_VISUAL_STUDIO\LABORATORYWORK\LABORATORYWORK\LIBRARIES\FANN-2.2.0-SOURCE\EXAMPLES\CASCADE_TRAIN.C
C:\DEVELOP\WORKSPACE_VISUAL_STUDIO\LABORATORYWORK\LABORATORYWORK\DEBUG\VC110.PDB
^C:\DEVELOP\WORKSPACE_VISUAL_STUDIO\LABORATORYWORK\LABORATORYWORK\LIBRARIES\FANN-2.2.0-SOURCE\EXAMPLES\MOMENTUMS.C
C:\DEVELOP\WORKSPACE_VISUAL_STUDIO\LABORATORYWORK\LABORATORYWORK\DEBUG\VC110.PDB
^C:\DEVELOP\WORKSPACE_VISUAL_STUDIO\LABORATORYWORK\LABORATORYWORK\LIBRARIES\FANN-2.2.0-SOURCE\EXAMPLES\MUSHROOM.C
C:\DEVELOP\WORKSPACE_VISUAL_STUDIO\LABORATORYWORK\LABORATORYWORK\DEBUG\VC110.PDB
^C:\DEVELOP\WORKSPACE_VISUAL_STUDIO\LABORATORYWORK\LABORATORYWORK\LIBRARIES\FANN-2.2.0-SOURCE\EXAMPLES\ROBOT.C
C:\DEVELOP\WORKSPACE_VISUAL_STUDIO\LABORATORYWORK\LABORATORYWORK\DEBUG\VC110.PDB
^C:\DEVELOP\WORKSPACE_VISUAL_STUDIO\LABORATORYWORK\LABORATORYWORK\LIBRARIES\FANN-2.2.0-SOURCE\EXAMPLES\SCALING_TEST.C
C:\DEVELOP\WORKSPACE_VISUAL_STUDIO\LABORATORYWORK\LABORATORYWORK\DEBUG\VC110.PDB
^C:\DEVELOP\WORKSPACE_VISUAL_STUDIO\LABORATORYWORK\LABORATORYWORK\LIBRARIES\FANN-2.2.0-SOURCE\EXAMPLES\SCALING_TRAIN.C
C:\DEVELOP\WORKSPACE_VISUAL_STUDIO\LABORATORYWORK\LABORATORYWORK\DEBUG\VC110.PDB
^C:\DEVELOP\WORKSPACE_VISUAL_STUDIO\LABORATORYWORK\LABORATORYWORK\LIBRARIES\FANN-2.2.0-SOURCE\EXAMPLES\SIMPLE_TEST.C
C:\DEVELOP\WORKSPACE_VISUAL_STUDIO\LABORATORYWORK\LABORATORYWORK\DEBUG\VC110.PDB
^C:\DEVELOP\WORKSPACE_VISUAL_STUDIO\LABORATORYWORK\LABORATORYWORK\LIBRARIES\FANN-2.2.0-SOURCE\EXAMPLES\SIMPLE_TRAIN.C
C:\DEVELOP\WORKSPACE_VISUAL_STUDIO\LABORATORYWORK\LABORATORYWORK\DEBUG\VC110.PDB
^C:\DEVELOP\WORKSPACE_VISUAL_STUDIO\LABORATORYWORK\LABORATORYWORK\LIBRARIES\FANN-2.2.0-SOURCE\EXAMPLES\STEEPNESS_TRAIN.C
C:\DEVELOP\WORKSPACE_VISUAL_STUDIO\LABORATORYWORK\LABORATORYWORK\DEBUG\VC110.PDB
^C:\DEVELOP\WORKSPACE_VISUAL_STUDIO\LABORATORYWORK\LABORATORYWORK\LIBRARIES\FANN-2.2.0-SOURCE\EXAMPLES\XOR_TEST.C
C:\DEVELOP\WORKSPACE_VISUAL_STUDIO\LABORATORYWORK\LABORATORYWORK\DEBUG\VC110.PDB
^C:\DEVELOP\WORKSPACE_VISUAL_STUDIO\LABORATORYWORK\LABORATORYWORK\LIBRARIES\FANN-2.2.0-SOURCE\EXAMPLES\XOR_TRAIN.C
C:\DEVELOP\WORKSPACE_VISUAL_STUDIO\LABORATORYWORK\LABORATORYWORK\DEBUG\VC110.PDB
^C:\DEVELOP\WORKSPACE_VISUAL_STUDIO\LABORATORYWORK\LABORATORYWORK\LIBRARIES\FANN-2.2.0-SOURCE\SRC\DOUBLEFANN.C
C:\DEVELOP\WORKSPACE_VISUAL_STUDIO\LABORATORYWORK\LABORATORYWORK\DEBUG\VC110.PDB
^C:\DEVELOP\WORKSPACE_VISUAL_STUDIO\LABORATORYWORK\LABORATORYWORK\LIBRARIES\FANN-2.2.0-SOURCE\SRC\FANN.C
C:\DEVELOP\WORKSPACE_VISUAL_STUDIO\LABORATORYWORK\LABORATORYWORK\DEBUG\VC110.PDB
^C:\DEVELOP\WORKSPACE_VISUAL_STUDIO\LABORATORYWORK\LABORATORYWORK\LIBRARIES\FANN-2.2.0-SOURCE\SRC\FANN_CASCADE.C
C:\DEVELOP\WORKSPACE_VISUAL_STUDIO\LABORATORYWORK\LABORATORYWORK\DEBUG\VC110.PDB
^C:\DEVELOP\WORKSPACE_VISUAL_STUDIO\LABORATORYWORK\LABORATORYWORK\LIBRARIES\FANN-2.2.0-SOURCE\SRC\FANN_ERROR.C
C:\DEVELOP\WORKSPACE_VISUAL_STUDIO\LABORATORYWORK\LABORATORYWORK\DEBUG\VC110.PDB
^C:\DEVELOP\WORKSPACE_VISUAL_STUDIO\LABORATORYWORK\LABORATORYWORK\LIBRARIES\FANN-2.2.0-SOURCE\SRC\FANN_IO.C
C:\DEVELOP\WORKSPACE_VISUAL_STUDIO\LABORATORYWORK\LABORATORYWORK\DEBUG\VC110.PDB
^C:\DEVELOP\WORKSPACE_VISUAL_STUDIO\LABORATORYWORK\LABORATORYWORK\LIBRARIES\FANN-2.2.0-SOURCE\SRC\FANN_TRAIN.C
C:\DEVELOP\WORKSPACE_VISUAL_STUDIO\LABORATORYWORK\LABORATORYWORK\DEBUG\VC110.PDB
^C:\DEVELOP\WORKSPACE_VISUAL_STUDIO\LABORATORYWORK\LABORATORYWORK\LIBRARIES\FANN-2.2.0-SOURCE\SRC\FANN_TRAIN_DATA.C
C:\DEVELOP\WORKSPACE_VISUAL_STUDIO\LABORATORYWORK\LABORATORYWORK\DEBUG\VC110.PDB
^C:\DEVELOP\WORKSPACE_VISUAL_STUDIO\LABORATORYWORK\LABORATORYWORK\LIBRARIES\FANN-2.2.0-SOURCE\SRC\FIXEDFANN.C
C:\DEVELOP\WORKSPACE_VISUAL_STUDIO\LABORATORYWORK\LABORATORYWORK\DEBUG\VC110.PDB
^C:\DEVELOP\WORKSPACE_VISUAL_STUDIO\LABORATORYWORK\LABORATORYWORK\LIBRARIES\FANN-2.2.0-SOURCE\SRC\FLOATFANN.C
C:\DEVELOP\WORKSPACE_VISUAL_STUDIO\LABORATORYWORK\LABORATORYWORK\DEBUG\VC110.PDB
^C:\DEVELOP\WORKSPACE_VISUAL_STUDIO\LABORATORYWORK\LABORATORYWORK\MYLIBRARIES\NEIRON\NEIRONFANN.CPP|C:\DEVELOP\WORKSPACE_VISUAL_STUDIO\LABORATORYWORK\LABORATORYWORK\SRC\RU\USATU\RBP-108M\ZAGIDULLINANDVAGAPOVA\MAIN.CPP
C:\DEVELOP\WORKSPACE_VISUAL_STUDIO\LABORATORYWORK\LABORATORYWORK\DEBUG\NEIRONFANN.OBJ
^C:\DEVELOP\WORKSPACE_VISUAL_STUDIO\LABORATORYWORK\LABORATORYWORK\LIBRARIES\BIGDECIMAL\BIGDECIMAL.CPP|C:\DEVELOP\WORKSPACE_VISUAL_STUDIO\LABORATORYWORK\LABORATORYWORK\LIBRARIES\TABLEPRINTER\TABLE_PRINTER.CPP|C:\DEVELOP\WORKSPACE_VISUAL_STUDIO\LABORATORYWORK\LABORATORYWORK\LIBRARIES\TINY\TINYXML2.CPP|C:\DEVELOP\WORKSPACE_VISUAL_STUDIO\LABORATORYWORK\LABORATORYWORK\MYLIBRARIES\NEIRON\NEIRONFANN.CPP|C:\DEVELOP\WORKSPACE_VISUAL_STUDIO\LABORATORYWORK\LABORATORYWORK\MYLIBRARIES\TITEM\TITEM.CPP|C:\DEVELOP\WORKSPACE_VISUAL_STUDIO\LABORATORYWORK\LABORATORYWORK\SRC\RU\USATU\RBP-108M\ZAGIDULLINANDVAGAPOVA\MAIN.CPP
C:\DEVELOP\WORKSPACE_VISUAL_STUDIO\LABORATORYWORK\LABORATORYWORK\DEBUG\BIGDECIMAL.OBJ
C:\DEVELOP\WORKSPACE_VISUAL_STUDIO\LABORATORYWORK\LABORATORYWORK\DEBUG\TABLE_PRINTER.OBJ
C:\DEVELOP\WORKSPACE_VISUAL_STUDIO\LABORATORYWORK\LABORATORYWORK\DEBUG\TINYXML2.OBJ
C:\DEVELOP\WORKSPACE_VISUAL_STUDIO\LABORATORYWORK\LABORATORYWORK\DEBUG\NEIRONFANN.OBJ
C:\DEVELOP\WORKSPACE_VISUAL_STUDIO\LABORATORYWORK\LABORATORYWORK\DEBUG\TITEM.OBJ
C:\DEVELOP\WORKSPACE_VISUAL_STUDIO\LABORATORYWORK\LABORATORYWORK\DEBUG\MAIN.OBJ
^C:\DEVELOP\WORKSPACE_VISUAL_STUDIO\LABORATORYWORK\LABORATORYWORK\MYLIBRARIES\WORKWITHFILES\CREATEHTML.CPP|C:\DEVELOP\WORKSPACE_VISUAL_STUDIO\LABORATORYWORK\LABORATORYWORK\MYLIBRARIES\WORKWITHFILES\CREATETXTFILE.CPP|C:\DEVELOP\WORKSPACE_VISUAL_STUDIO\LABORATORYWORK\LABORATORYWORK\MYLIBRARIES\WORKWITHFILES\CREATEXMLFILE.CPP|C:\DEVELOP\WORKSPACE_VISUAL_STUDIO\LABORATORYWORK\LABORATORYWORK\MYLIBRARIES\WORKWITHFILES\GENERATIONDATA.CPP|C:\DEVELOP\WORKSPACE_VISUAL_STUDIO\LABORATORYWORK\LABORATORYWORK\MYLIBRARIES\WORKWITHFILES\READXMLFILE.CPP|C:\DEVELOP\WORKSPACE_VISUAL_STUDIO\LABORATORYWORK\LABORATORYWORK\SRC\RU\USATU\RBP-108M\ZAGIDULLINANDVAGAPOVA\MAIN.CPP
C:\DEVELOP\WORKSPACE_VISUAL_STUDIO\LABORATORYWORK\LABORATORYWORK\DEBUG\CREATEHTML.OBJ
C:\DEVELOP\WORKSPACE_VISUAL_STUDIO\LABORATORYWORK\LABORATORYWORK\DEBUG\CREATETXTFILE.OBJ
C:\DEVELOP\WORKSPACE_VISUAL_STUDIO\LABORATORYWORK\LABORATORYWORK\DEBUG\CREATEXMLFILE.OBJ
C:\DEVELOP\WORKSPACE_VISUAL_STUDIO\LABORATORYWORK\LABORATORYWORK\DEBUG\GENERATIONDATA.OBJ
C:\DEVELOP\WORKSPACE_VISUAL_STUDIO\LABORATORYWORK\LABORATORYWORK\DEBUG\READXMLFILE.OBJ
C:\DEVELOP\WORKSPACE_VISUAL_STUDIO\LABORATORYWORK\LABORATORYWORK\DEBUG\MAIN.OBJ
^C:\DEVELOP\WORKSPACE_VISUAL_STUDIO\LABORATORYWORK\LABORATORYWORK\MYLIBRARIES\WORKWITHFILES\CREATEHTML.CPP
C:\DEVELOP\WORKSPACE_VISUAL_STUDIO\LABORATORYWORK\LABORATORYWORK\DEBUG\VC110.PDB
^C:\DEVELOP\WORKSPACE_VISUAL_STUDIO\LABORATORYWORK\LABORATORYWORK\MYLIBRARIES\WORKWITHFILES\CREATETXTFILE.CPP
C:\DEVELOP\WORKSPACE_VISUAL_STUDIO\LABORATORYWORK\LABORATORYWORK\DEBUG\VC110.PDB
^C:\DEVELOP\WORKSPACE_VISUAL_STUDIO\LABORATORYWORK\LABORATORYWORK\MYLIBRARIES\WORKWITHFILES\CREATEXMLFILE.CPP
C:\DEVELOP\WORKSPACE_VISUAL_STUDIO\LABORATORYWORK\LABORATORYWORK\DEBUG\VC110.PDB
^C:\DEVELOP\WORKSPACE_VISUAL_STUDIO\LABORATORYWORK\LABORATORYWORK\MYLIBRARIES\WORKWITHFILES\GENERATIONDATA.CPP
C:\DEVELOP\WORKSPACE_VISUAL_STUDIO\LABORATORYWORK\LABORATORYWORK\DEBUG\VC110.PDB
^C:\DEVELOP\WORKSPACE_VISUAL_STUDIO\LABORATORYWORK\LABORATORYWORK\MYLIBRARIES\WORKWITHFILES\READXMLFILE.CPP
C:\DEVELOP\WORKSPACE_VISUAL_STUDIO\LABORATORYWORK\LABORATORYWORK\DEBUG\VC110.PDB
^C:\DEVELOP\WORKSPACE_VISUAL_STUDIO\LABORATORYWORK\LABORATORYWORK\MYLIBRARIES\MENU\WRITEDATATABLECONSOLE\WRITEDATA.CPP|C:\DEVELOP\WORKSPACE_VISUAL_STUDIO\LABORATORYWORK\LABORATORYWORK\SRC\RU\USATU\RBP-108M\ZAGIDULLINANDVAGAPOVA\MAIN.CPP
C:\DEVELOP\WORKSPACE_VISUAL_STUDIO\LABORATORYWORK\LABORATORYWORK\DEBUG\WRITEDATA.OBJ
C:\DEVELOP\WORKSPACE_VISUAL_STUDIO\LABORATORYWORK\LABORATORYWORK\DEBUG\MAIN.OBJ
^C:\DEVELOP\WORKSPACE_VISUAL_STUDIO\LABORATORYWORK\LABORATORYWORK\MYLIBRARIES\MENU\WRITEDATATABLECONSOLE\WRITEDATA.CPP
C:\DEVELOP\WORKSPACE_VISUAL_STUDIO\LABORATORYWORK\LABORATORYWORK\DEBUG\VC110.PDB
^C:\DEVELOP\WORKSPACE_VISUAL_STUDIO\LABORATORYWORK\LABORATORYWORK\MYLIBRARIES\MENU\GENERALMENU\MENUS.CPP|C:\DEVELOP\WORKSPACE_VISUAL_STUDIO\LABORATORYWORK\LABORATORYWORK\MYLIBRARIES\MENU\WRITEDATATABLECONSOLE\WRITEDATA.CPP|C:\DEVELOP\WORKSPACE_VISUAL_STUDIO\LABORATORYWORK\LABORATORYWORK\MYLIBRARIES\TITEM\WORKWITHTITEM.CPP|C:\DEVELOP\WORKSPACE_VISUAL_STUDIO\LABORATORYWORK\LABORATORYWORK\SRC\RU\USATU\RBP-108M\ZAGIDULLINANDVAGAPOVA\MAIN.CPP
C:\DEVELOP\WORKSPACE_VISUAL_STUDIO\LABORATORYWORK\LABORATORYWORK\DEBUG\MENUS.OBJ
C:\DEVELOP\WORKSPACE_VISUAL_STUDIO\LABORATORYWORK\LABORATORYWORK\DEBUG\WRITEDATA.OBJ
C:\DEVELOP\WORKSPACE_VISUAL_STUDIO\LABORATORYWORK\LABORATORYWORK\DEBUG\MAIN.OBJ
^C:\DEVELOP\WORKSPACE_VISUAL_STUDIO\LABORATORYWORK\LABORATORYWORK\MYLIBRARIES\MENU\GENERALMENU\MENUS.CPP
C:\DEVELOP\WORKSPACE_VISUAL_STUDIO\LABORATORYWORK\LABORATORYWORK\DEBUG\VC110.PDB
^C:\DEVELOP\WORKSPACE_VISUAL_STUDIO\LABORATORYWORK\LABORATORYWORK\MYLIBRARIES\TITEM\WORKWITHTITEM.CPP
C:\DEVELOP\WORKSPACE_VISUAL_STUDIO\LABORATORYWORK\LABORATORYWORK\DEBUG\VC110.PDB
^C:\DEVELOP\WORKSPACE_VISUAL_STUDIO\LABORATORYWORK\LABORATORYWORK\MYLIBRARIES\MENU\WRITEDATATABLECONSOLE\WRITEDATA.CPP|C:\DEVELOP\WORKSPACE_VISUAL_STUDIO\LABORATORYWORK\LABORATORYWORK\MYLIBRARIES\TITEM\WORKWITHTITEM.CPP
C:\DEVELOP\WORKSPACE_VISUAL_STUDIO\LABORATORYWORK\LABORATORYWORK\DEBUG\WRITEDATA.OBJ
C:\DEVELOP\WORKSPACE_VISUAL_STUDIO\LABORATORYWORK\LABORATORYWORK\DEBUG\WORKWITHTITEM.OBJ
^C:\DEVELOP\WORKSPACE_VISUAL_STUDIO\LABORATORYWORK\LABORATORYWORK\MYLIBRARIES\MENU\GENERALMENU\MENUS.CPP|C:\DEVELOP\WORKSPACE_VISUAL_STUDIO\LABORATORYWORK\LABORATORYWORK\SRC\RU\USATU\RBP-108M\ZAGIDULLINANDVAGAPOVA\MAIN.CPP
C:\DEVELOP\WORKSPACE_VISUAL_STUDIO\LABORATORYWORK\LABORATORYWORK\DEBUG\MENUS.OBJ
C:\DEVELOP\WORKSPACE_VISUAL_STUDIO\LABORATORYWORK\LABORATORYWORK\DEBUG\MAIN.OBJ
^C:\DEVELOP\WORKSPACE_VISUAL_STUDIO\LABORATORYWORK\LABORATORYWORK\LIBRARIES\ALGLIB\ALGLIBINTERNAL.CPP|C:\DEVELOP\WORKSPACE_VISUAL_STUDIO\LABORATORYWORK\LABORATORYWORK\LIBRARIES\ALGLIB\ALGLIBMISC.CPP|C:\DEVELOP\WORKSPACE_VISUAL_STUDIO\LABORATORYWORK\LABORATORYWORK\LIBRARIES\ALGLIB\AP.CPP|C:\DEVELOP\WORKSPACE_VISUAL_STUDIO\LABORATORYWORK\LABORATORYWORK\LIBRARIES\ALGLIB\DATAANALYSIS.CPP|C:\DEVELOP\WORKSPACE_VISUAL_STUDIO\LABORATORYWORK\LABORATORYWORK\LIBRARIES\ALGLIB\DIFFEQUATIONS.CPP|C:\DEVELOP\WORKSPACE_VISUAL_STUDIO\LABORATORYWORK\LABORATORYWORK\LIBRARIES\ALGLIB\FASTTRANSFORMS.CPP|C:\DEVELOP\WORKSPACE_VISUAL_STUDIO\LABORATORYWORK\LABORATORYWORK\LIBRARIES\ALGLIB\INTEGRATION.CPP|C:\DEVELOP\WORKSPACE_VISUAL_STUDIO\LABORATORYWORK\LABORATORYWORK\LIBRARIES\ALGLIB\INTERPOLATION.CPP|C:\DEVELOP\WORKSPACE_VISUAL_STUDIO\LABORATORYWORK\LABORATORYWORK\LIBRARIES\ALGLIB\LINALG.CPP|C:\DEVELOP\WORKSPACE_VISUAL_STUDIO\LABORATORYWORK\LABORATORYWORK\LIBRARIES\ALGLIB\OPTIMIZATION.CPP|C:\DEVELOP\WORKSPACE_VISUAL_STUDIO\LABORATORYWORK\LABORATORYWORK\LIBRARIES\ALGLIB\SOLVERS.CPP|C:\DEVELOP\WORKSPACE_VISUAL_STUDIO\LABORATORYWORK\LABORATORYWORK\LIBRARIES\ALGLIB\SPECIALFUNCTIONS.CPP|C:\DEVELOP\WORKSPACE_VISUAL_STUDIO\LABORATORYWORK\LABORATORYWORK\LIBRARIES\ALGLIB\STATISTICS.CPP|C:\DEVELOP\WORKSPACE_VISUAL_STUDIO\LABORATORYWORK\LABORATORYWORK\MYLIBRARIES\NEIRON\NEIRONALGLIB.CPP|C:\DEVELOP\WORKSPACE_VISUAL_STUDIO\LABORATORYWORK\LABORATORYWORK\SRC\RU\USATU\RBP-108M\ZAGIDULLINANDVAGAPOVA\MAIN.CPP
C:\DEVELOP\WORKSPACE_VISUAL_STUDIO\LABORATORYWORK\LABORATORYWORK\DEBUG\ALGLIBINTERNAL.OBJ
C:\DEVELOP\WORKSPACE_VISUAL_STUDIO\LABORATORYWORK\LABORATORYWORK\DEBUG\ALGLIBMISC.OBJ
C:\DEVELOP\WORKSPACE_VISUAL_STUDIO\LABORATORYWORK\LABORATORYWORK\DEBUG\AP.OBJ
C:\DEVELOP\WORKSPACE_VISUAL_STUDIO\LABORATORYWORK\LABORATORYWORK\DEBUG\DATAANALYSIS.OBJ
C:\DEVELOP\WORKSPACE_VISUAL_STUDIO\LABORATORYWORK\LABORATORYWORK\DEBUG\DIFFEQUATIONS.OBJ
C:\DEVELOP\WORKSPACE_VISUAL_STUDIO\LABORATORYWORK\LABORATORYWORK\DEBUG\FASTTRANSFORMS.OBJ
C:\DEVELOP\WORKSPACE_VISUAL_STUDIO\LABORATORYWORK\LABORATORYWORK\DEBUG\INTEGRATION.OBJ
C:\DEVELOP\WORKSPACE_VISUAL_STUDIO\LABORATORYWORK\LABORATORYWORK\DEBUG\INTERPOLATION.OBJ
C:\DEVELOP\WORKSPACE_VISUAL_STUDIO\LABORATORYWORK\LABORATORYWORK\DEBUG\LINALG.OBJ
C:\DEVELOP\WORKSPACE_VISUAL_STUDIO\LABORATORYWORK\LABORATORYWORK\DEBUG\OPTIMIZATION.OBJ
C:\DEVELOP\WORKSPACE_VISUAL_STUDIO\LABORATORYWORK\LABORATORYWORK\DEBUG\SOLVERS.OBJ
C:\DEVELOP\WORKSPACE_VISUAL_STUDIO\LABORATORYWORK\LABORATORYWORK\DEBUG\SPECIALFUNCTIONS.OBJ
C:\DEVELOP\WORKSPACE_VISUAL_STUDIO\LABORATORYWORK\LABORATORYWORK\DEBUG\STATISTICS.OBJ
C:\DEVELOP\WORKSPACE_VISUAL_STUDIO\LABORATORYWORK\LABORATORYWORK\DEBUG\MAIN.OBJ
^C:\DEVELOP\WORKSPACE_VISUAL_STUDIO\LABORATORYWORK\LABORATORYWORK\LIBRARIES\ALGLIB\ALGLIBINTERNAL.CPP
C:\DEVELOP\WORKSPACE_VISUAL_STUDIO\LABORATORYWORK\LABORATORYWORK\DEBUG\VC110.PDB
^C:\DEVELOP\WORKSPACE_VISUAL_STUDIO\LABORATORYWORK\LABORATORYWORK\LIBRARIES\ALGLIB\ALGLIBMISC.CPP
C:\DEVELOP\WORKSPACE_VISUAL_STUDIO\LABORATORYWORK\LABORATORYWORK\DEBUG\VC110.PDB
^C:\DEVELOP\WORKSPACE_VISUAL_STUDIO\LABORATORYWORK\LABORATORYWORK\LIBRARIES\ALGLIB\AP.CPP
C:\DEVELOP\WORKSPACE_VISUAL_STUDIO\LABORATORYWORK\LABORATORYWORK\DEBUG\VC110.PDB
^C:\DEVELOP\WORKSPACE_VISUAL_STUDIO\LABORATORYWORK\LABORATORYWORK\LIBRARIES\ALGLIB\DATAANALYSIS.CPP
C:\DEVELOP\WORKSPACE_VISUAL_STUDIO\LABORATORYWORK\LABORATORYWORK\DEBUG\VC110.PDB
^C:\DEVELOP\WORKSPACE_VISUAL_STUDIO\LABORATORYWORK\LABORATORYWORK\LIBRARIES\ALGLIB\DIFFEQUATIONS.CPP
C:\DEVELOP\WORKSPACE_VISUAL_STUDIO\LABORATORYWORK\LABORATORYWORK\DEBUG\VC110.PDB
^C:\DEVELOP\WORKSPACE_VISUAL_STUDIO\LABORATORYWORK\LABORATORYWORK\LIBRARIES\ALGLIB\FASTTRANSFORMS.CPP
C:\DEVELOP\WORKSPACE_VISUAL_STUDIO\LABORATORYWORK\LABORATORYWORK\DEBUG\VC110.PDB
^C:\DEVELOP\WORKSPACE_VISUAL_STUDIO\LABORATORYWORK\LABORATORYWORK\LIBRARIES\ALGLIB\INTEGRATION.CPP
C:\DEVELOP\WORKSPACE_VISUAL_STUDIO\LABORATORYWORK\LABORATORYWORK\DEBUG\VC110.PDB
^C:\DEVELOP\WORKSPACE_VISUAL_STUDIO\LABORATORYWORK\LABORATORYWORK\LIBRARIES\ALGLIB\INTERPOLATION.CPP
C:\DEVELOP\WORKSPACE_VISUAL_STUDIO\LABORATORYWORK\LABORATORYWORK\DEBUG\VC110.PDB
^C:\DEVELOP\WORKSPACE_VISUAL_STUDIO\LABORATORYWORK\LABORATORYWORK\LIBRARIES\ALGLIB\LINALG.CPP
C:\DEVELOP\WORKSPACE_VISUAL_STUDIO\LABORATORYWORK\LABORATORYWORK\DEBUG\VC110.PDB
^C:\DEVELOP\WORKSPACE_VISUAL_STUDIO\LABORATORYWORK\LABORATORYWORK\LIBRARIES\ALGLIB\OPTIMIZATION.CPP
C:\DEVELOP\WORKSPACE_VISUAL_STUDIO\LABORATORYWORK\LABORATORYWORK\DEBUG\VC110.PDB
^C:\DEVELOP\WORKSPACE_VISUAL_STUDIO\LABORATORYWORK\LABORATORYWORK\LIBRARIES\ALGLIB\SOLVERS.CPP
C:\DEVELOP\WORKSPACE_VISUAL_STUDIO\LABORATORYWORK\LABORATORYWORK\DEBUG\VC110.PDB
^C:\DEVELOP\WORKSPACE_VISUAL_STUDIO\LABORATORYWORK\LABORATORYWORK\LIBRARIES\ALGLIB\SPECIALFUNCTIONS.CPP
C:\DEVELOP\WORKSPACE_VISUAL_STUDIO\LABORATORYWORK\LABORATORYWORK\DEBUG\VC110.PDB
^C:\DEVELOP\WORKSPACE_VISUAL_STUDIO\LABORATORYWORK\LABORATORYWORK\LIBRARIES\ALGLIB\STATISTICS.CPP
C:\DEVELOP\WORKSPACE_VISUAL_STUDIO\LABORATORYWORK\LABORATORYWORK\DEBUG\VC110.PDB
^C:\DEVELOP\WORKSPACE_VISUAL_STUDIO\LABORATORYWORK\LABORATORYWORK\MYLIBRARIES\NEIRON\NEIRONALGLIB.CPP
C:\DEVELOP\WORKSPACE_VISUAL_STUDIO\LABORATORYWORK\LABORATORYWORK\DEBUG\VC110.PDB
C:\DEVELOP\WORKSPACE_VISUAL_STUDIO\LABORATORYWORK\LABORATORYWORK\DEBUG\NEIRONALGLIB.OBJ
^C:\DEVELOP\WORKSPACE_VISUAL_STUDIO\LABORATORYWORK\LABORATORYWORK\MYLIBRARIES\NEIRON\NEIRONALGLIB.CPP|C:\DEVELOP\WORKSPACE_VISUAL_STUDIO\LABORATORYWORK\LABORATORYWORK\MYLIBRARIES\WORKWITHFILES\READXMLFILE.CPP
C:\DEVELOP\WORKSPACE_VISUAL_STUDIO\LABORATORYWORK\LABORATORYWORK\DEBUG\NEIRONALGLIB.OBJ
C:\DEVELOP\WORKSPACE_VISUAL_STUDIO\LABORATORYWORK\LABORATORYWORK\DEBUG\READXMLFILE.OBJ
